module guitou.cm/mobile/generator

go 1.15

require (
	github.com/Microsoft/go-winio v0.4.16 // indirect
	github.com/cespare/reflex v0.3.1 // indirect
	github.com/felixge/httpsnoop v1.0.2 // indirect
	github.com/go-git/go-git v4.7.0+incompatible
	github.com/go-git/go-git/v5 v5.2.0
	github.com/go-kit/kit v0.10.0
	github.com/golang/protobuf v1.5.2 // indirect
	github.com/gorilla/handlers v1.5.1 // indirect
	github.com/gorilla/mux v1.8.0
	github.com/imdario/mergo v0.3.11 // indirect
	github.com/kevinburke/ssh_config v0.0.0-20201106050909-4977a11b4351 // indirect
	github.com/otiai10/copy v1.7.0 // indirect
	github.com/rs/cors v1.7.0 // indirect
	github.com/streadway/amqp v1.0.0 // indirect
	github.com/xanzy/ssh-agent v0.3.0 // indirect
	github.com/xdg/scram v0.0.0-20180814205039-7eeb5667e42c // indirect
	github.com/xdg/stringprep v0.0.0-20180714160509-73f8eece6fdc // indirect
	go.mongodb.org/mongo-driver v1.5.3
	golang.org/x/crypto v0.0.0-20201208171446-5f87f3452ae9 // indirect
	golang.org/x/net v0.0.0-20210614182718-04defd469f4e // indirect
	golang.org/x/sys v0.0.0-20210615035016-665e8c7367d1 // indirect
	google.golang.org/genproto v0.0.0-20210614182748-5b3b54cad159 // indirect
	google.golang.org/grpc v1.38.0 // indirect
	google.golang.org/protobuf v1.26.0 // indirect
	gopkg.in/src-d/go-git.v4 v4.13.1 // indirect
	gopkg.in/yaml.v3 v3.0.0-20210107192922-496545a6307b // indirect
)
